{"bin":"45717360","amount":"100.00","currency":"EUR"}
{"bin":"516793","amount":"50.00","currency":"USD"}
{"bin":"45417360","amount":"10000.00","currency":"JPY"}
{"bin":"41417360","amount":"130.00","currency":"USD"}
{"bin":"4745030","amount":"2000.00","currency":"GBP"}
{"bin":"4745030INVALID","amount":"2000.00","currency":"INVALID"}
